LAB2_3.sim.vcd
$comment
Copyright (C) 1991-2010 Altera Corporation
Your use of Altera Corporation's design tools, logic functions 
and other software and tools, and its AMPP partner logic 
functions, and any output files from any of the foregoing 
(including device programming or simulation files), and any 
associated documentation or information are expressly subject 
to the terms and conditions of the Altera Program License 
Subscription Agreement, Altera MegaCore Function License 
Agreement, or other applicable license agreement, including, 
without limitation, that your use is for the sole purpose of 
programming logic devices manufactured by Altera and sold by 
Altera or its authorized distributors.  Please refer to the 
applicable agreement for further details.
$end

$date 
  09/17/2020 20:31:36 
$end
$version 
 QUARTUS_VCD_EXPORT 1.0 
$end
$timescale
  1 ps
$end
$var reg 1 ! X1 $end
$var reg 1 " X2 $end
$var reg 1 # X3 $end
$var reg 1 $ X4 $end
$var reg 1 % f $end
$var reg 1 & g $end
$var reg 1 ' h $end
$enddefinitions $end
#0
$dumpvars
0!
0"
0#
0$
0%
0&
0'
$end
#5000
1$
1'
#10000
1#
0$
#15000
1$
#20000
1"
0#
0$
0'
#25000
1$
1'
#30000
1#
0$
#35000
1$
#40000
1!
0"
0#
0$
0'
#45000
1$
1'
#50000
1#
0$
#55000
1$
#60000
1"
0#
0$
1&
0'
#65000
1$
1%
1'
#70000
1#
0$
#75000
1$
#80000
0!
0"
0#
0$
0%
0&
0'
#85000
1$
1'
#90000
1#
0$
#95000
1$
#100000
1"
0#
0$
0'
#105000
1$
1'
#110000
1#
0$
#115000
1$
#120000
1!
0"
0#
0$
0'
#125000
1$
1'
#130000
1#
0$
#135000
1$
#140000
1"
0#
0$
1&
0'
#145000
1$
1%
1'
#150000
1#
0$
#155000
1$
#160000
0!
0"
0#
0$
0%
0&
0'
